{
  "profile": {
    "profilePictureLink": "assets/profile-picture.png",
    "profileName": "test",
     "profileSetting": {
       "profilePrimaryColor": "rebeccapurple",
       "profileHoverColor":"palegoldenrod"
     }
  },
  "linkList": [
    {
    "linkType": "classic",
    "linkText": "classic",
      "linkUrl": "https://www.google.com"
    },
    {
    "linkType": "classic",
    "linkText": "classic",
      "linkUrl": "https://www.google.com"
    },
    {
      "linkType": "music",
      "linkText": "music",
      "musicLinkSetting": {
        "player": {
          "songName":  "Song Name",
          "artist": "Artist Name",
          "thumbnail": "assets/thumbnail.png"
        },
        "mediaServiceProvider": [
          {
            "mediaServiceName": "Spotify",
            "mediaIcon": "assets/icons/spotify.svg"
          },
          {
            "mediaServiceName": "Apple Music",
            "mediaIcon": "assets/icons/apple-music.svg"
          },
          {
            "mediaServiceName": "Soundcloud",
            "mediaIcon": "assets/icons/soundcloud.svg"
          },
          {
            "mediaServiceName": "YouTube Music",
            "mediaIcon": "assets/icons/youtube.svg"
          },
          {
            "mediaServiceName": "Deezer",
            "mediaIcon": "assets/icons/deezer.svg"
          },
          {
            "mediaServiceName": "Tidal",
            "mediaIcon": "assets/icons/tidal.svg"
          },
          {
            "mediaServiceName": "Bandcamp",
            "mediaIcon": "assets/icons/bandcamp.svg"
          }

        ]
        }
    },
    {
      "linkType": "show",
      "linkText": "show",
      "showLinkList": {
        "venueProvider": [
          {
            "venueProviderName": "Venue Name, Canberra",
            "venueTime":"Apr 01 2019",
            "venueSoldOut": false
          },
          {
            "venueProviderName": "Venue Name, Melbourne",
            "venueTime":"Apr 02 2019",
            "venueSoldOut": true
          },
          {
            "venueProviderName": "Venue Name, Sydney",
            "venueTime":"Apr 03 2019",
            "venueSoldOut": false
          },
          {
            "venueProviderName": "Venue Name, Brisbane",
            "venueTime":"Apr 04 2019",
            "venueSoldOut": false
          }
        ]
      }
    }
  ]
}
